{
  "color_background": "#2e3440",
  "color_default": "#3b4252",
  "color_1": "#bf616a",
  "color_2": "#d08770",
  "color_3": "#ebcb8b",
  "color_4": "#a3be8c",
  "color_5": "#5e81ac",
  "color_6": "#b48ead"
}